solid OpenSCAD_Model
  facet normal 0.78183 0.623492 0
    outer loop
      vertex 2.70291 1.30165 27
      vertex 1.87047 2.34549 3
      vertex 1.87047 2.34549 27
    endloop
  endfacet
  facet normal 0.78183 0.623492 0
    outer loop
      vertex 1.87047 2.34549 3
      vertex 2.70291 1.30165 27
      vertex 2.70291 1.30165 3
    endloop
  endfacet
  facet normal 0.974928 0.222519 0
    outer loop
      vertex 3 0 27
      vertex 2.70291 1.30165 3
      vertex 2.70291 1.30165 27
    endloop
  endfacet
  facet normal 0.974928 0.222519 0
    outer loop
      vertex 2.70291 1.30165 3
      vertex 3 0 27
      vertex 3 0 3
    endloop
  endfacet
  facet normal 0.433884 -0.900969 0
    outer loop
      vertex 0.667562 -2.92478 3
      vertex 1.87047 -2.34549 27
      vertex 0.667562 -2.92478 27
    endloop
  endfacet
  facet normal 0.433884 -0.900969 0
    outer loop
      vertex 1.87047 -2.34549 27
      vertex 0.667562 -2.92478 3
      vertex 1.87047 -2.34549 3
    endloop
  endfacet
  facet normal 0.974928 -0.222519 0
    outer loop
      vertex 2.70291 -1.30165 27
      vertex 3 0 3
      vertex 3 0 27
    endloop
  endfacet
  facet normal 0.974928 -0.222519 0
    outer loop
      vertex 3 0 3
      vertex 2.70291 -1.30165 27
      vertex 2.70291 -1.30165 3
    endloop
  endfacet
  facet normal -0.78183 -0.623492 0
    outer loop
      vertex -1.87047 -2.34549 3
      vertex -2.70291 -1.30165 27
      vertex -2.70291 -1.30165 3
    endloop
  endfacet
  facet normal -0.78183 -0.623492 0
    outer loop
      vertex -2.70291 -1.30165 27
      vertex -1.87047 -2.34549 3
      vertex -1.87047 -2.34549 27
    endloop
  endfacet
  facet normal -0.433884 0.900969 0
    outer loop
      vertex -0.667562 2.92478 3
      vertex -1.87047 2.34549 27
      vertex -0.667562 2.92478 27
    endloop
  endfacet
  facet normal -0.433884 0.900969 0
    outer loop
      vertex -1.87047 2.34549 27
      vertex -0.667562 2.92478 3
      vertex -1.87047 2.34549 3
    endloop
  endfacet
  facet normal -0.974928 0.222519 0
    outer loop
      vertex -3 0 3
      vertex -2.70291 1.30165 27
      vertex -2.70291 1.30165 3
    endloop
  endfacet
  facet normal -0.974928 0.222519 0
    outer loop
      vertex -2.70291 1.30165 27
      vertex -3 0 3
      vertex -3 0 27
    endloop
  endfacet
  facet normal -0.78183 0.623492 0
    outer loop
      vertex -2.70291 1.30165 3
      vertex -1.87047 2.34549 27
      vertex -1.87047 2.34549 3
    endloop
  endfacet
  facet normal -0.78183 0.623492 0
    outer loop
      vertex -1.87047 2.34549 27
      vertex -2.70291 1.30165 3
      vertex -2.70291 1.30165 27
    endloop
  endfacet
  facet normal 0.78183 -0.623492 0
    outer loop
      vertex 1.87047 -2.34549 27
      vertex 2.70291 -1.30165 3
      vertex 2.70291 -1.30165 27
    endloop
  endfacet
  facet normal 0.78183 -0.623492 0
    outer loop
      vertex 2.70291 -1.30165 3
      vertex 1.87047 -2.34549 27
      vertex 1.87047 -2.34549 3
    endloop
  endfacet
  facet normal 0 1 -0
    outer loop
      vertex 0.667562 2.92478 3
      vertex -0.667562 2.92478 27
      vertex 0.667562 2.92478 27
    endloop
  endfacet
  facet normal 0 1 0
    outer loop
      vertex -0.667562 2.92478 27
      vertex 0.667562 2.92478 3
      vertex -0.667562 2.92478 3
    endloop
  endfacet
  facet normal 0.433884 0.900969 -0
    outer loop
      vertex 1.87047 2.34549 3
      vertex 0.667562 2.92478 27
      vertex 1.87047 2.34549 27
    endloop
  endfacet
  facet normal 0.433884 0.900969 0
    outer loop
      vertex 0.667562 2.92478 27
      vertex 1.87047 2.34549 3
      vertex 0.667562 2.92478 3
    endloop
  endfacet
  facet normal -0.433884 -0.900969 0
    outer loop
      vertex -1.87047 -2.34549 3
      vertex -0.667562 -2.92478 27
      vertex -1.87047 -2.34549 27
    endloop
  endfacet
  facet normal -0.433884 -0.900969 -0
    outer loop
      vertex -0.667562 -2.92478 27
      vertex -1.87047 -2.34549 3
      vertex -0.667562 -2.92478 3
    endloop
  endfacet
  facet normal 0 -1 0
    outer loop
      vertex -0.667562 -2.92478 3
      vertex 0.667562 -2.92478 27
      vertex -0.667562 -2.92478 27
    endloop
  endfacet
  facet normal 0 -1 -0
    outer loop
      vertex 0.667562 -2.92478 27
      vertex -0.667562 -2.92478 3
      vertex 0.667562 -2.92478 3
    endloop
  endfacet
  facet normal -0.974928 -0.222519 0
    outer loop
      vertex -2.70291 -1.30165 3
      vertex -3 0 27
      vertex -3 0 3
    endloop
  endfacet
  facet normal -0.974928 -0.222519 0
    outer loop
      vertex -3 0 27
      vertex -2.70291 -1.30165 3
      vertex -2.70291 -1.30165 27
    endloop
  endfacet
  facet normal -0.431771 -0.098552 -0.896583
    outer loop
      vertex -1.68523 -0.811565 0.654505
      vertex -1.87047 0 0.654505
      vertex -0.667562 0 0.0752153
    endloop
  endfacet
  facet normal 0.763163 0.608606 -0.217211
    outer loop
      vertex 2.43523 1.17275 1.69835
      vertex 1.87047 2.34549 3
      vertex 2.70291 1.30165 3
    endloop
  endfacet
  facet normal -0.192156 -0.399018 -0.896583
    outer loop
      vertex -0.416218 -1.82357 0.654505
      vertex -1.16622 -1.46239 0.654505
      vertex -0.148546 -0.650826 0.0752153
    endloop
  endfacet
  facet normal -0.342537 -0.711285 -0.613794
    outer loop
      vertex -0.601453 -2.63514 1.69835
      vertex -1.68523 -2.11322 1.69835
      vertex -1.16622 -1.46239 0.654505
    endloop
  endfacet
  facet normal 0 0.789466 -0.613795
    outer loop
      vertex 0.416218 1.82357 0.654505
      vertex -0.601453 2.63514 1.69835
      vertex 0.601453 2.63514 1.69835
    endloop
  endfacet
  facet normal 0 0.789466 -0.613795
    outer loop
      vertex -0.601453 2.63514 1.69835
      vertex 0.416218 1.82357 0.654505
      vertex -0.416218 1.82357 0.654505
    endloop
  endfacet
  facet normal 0.617231 -0.492225 -0.613792
    outer loop
      vertex 1.68523 -2.11322 1.69835
      vertex 1.16622 -1.46239 0.654505
      vertex 2.43523 -1.17275 1.69835
    endloop
  endfacet
  facet normal 0.431771 0.098552 -0.896583
    outer loop
      vertex 1.87047 0 0.654505
      vertex 0.667562 0 0.0752153
      vertex 1.68523 0.811565 0.654505
    endloop
  endfacet
  facet normal 0.763165 -0.608604 -0.217208
    outer loop
      vertex 1.87047 -2.34549 3
      vertex 1.68523 -2.11322 1.69835
      vertex 2.43523 -1.17275 1.69835
    endloop
  endfacet
  facet normal -0.763163 0.608606 -0.217211
    outer loop
      vertex -2.43523 1.17275 1.69835
      vertex -2.70291 1.30165 3
      vertex -1.87047 2.34549 3
    endloop
  endfacet
  facet normal 0.423525 0.879459 -0.217206
    outer loop
      vertex 1.68523 2.11322 1.69835
      vertex 0.667562 2.92478 3
      vertex 1.87047 2.34549 3
    endloop
  endfacet
  facet normal -0.346256 -0.276127 -0.896583
    outer loop
      vertex -1.16622 -1.46239 0.654505
      vertex -1.68523 -0.811565 0.654505
      vertex -0.601453 -0.289644 0.0752153
    endloop
  endfacet
  facet normal -0.342535 0.711285 -0.613795
    outer loop
      vertex -0.416218 1.82357 0.654505
      vertex -1.16622 1.46239 0.654505
      vertex -0.601453 2.63514 1.69835
    endloop
  endfacet
  facet normal -0.423525 0.879459 -0.217206
    outer loop
      vertex -1.68523 2.11322 1.69835
      vertex -1.87047 2.34549 3
      vertex -0.667562 2.92478 3
    endloop
  endfacet
  facet normal -0.951651 -0.217206 -0.217213
    outer loop
      vertex -2.70291 -1.30165 3
      vertex -3 0 3
      vertex -2.43523 -1.17275 1.69835
    endloop
  endfacet
  facet normal 0.763165 0.608604 -0.217208
    outer loop
      vertex 2.43523 1.17275 1.69835
      vertex 1.68523 2.11322 1.69835
      vertex 1.87047 2.34549 3
    endloop
  endfacet
  facet normal 0.763163 -0.608606 -0.217211
    outer loop
      vertex 2.70291 -1.30165 3
      vertex 1.87047 -2.34549 3
      vertex 2.43523 -1.17275 1.69835
    endloop
  endfacet
  facet normal 0 0.442877 -0.896583
    outer loop
      vertex -0.148546 0.650826 0.0752153
      vertex 0.416218 1.82357 0.654505
      vertex 0.148546 0.650826 0.0752153
    endloop
  endfacet
  facet normal 0 0.442877 -0.896583
    outer loop
      vertex 0.416218 1.82357 0.654505
      vertex -0.148546 0.650826 0.0752153
      vertex -0.416218 1.82357 0.654505
    endloop
  endfacet
  facet normal -0.617231 -0.492225 -0.613792
    outer loop
      vertex -1.68523 -2.11322 1.69835
      vertex -2.43523 -1.17275 1.69835
      vertex -1.16622 -1.46239 0.654505
    endloop
  endfacet
  facet normal 0.431773 -0.0985489 -0.896582
    outer loop
      vertex 1.68523 -0.811565 0.654505
      vertex 0.601453 -0.289644 0.0752153
      vertex 0.667562 0 0.0752153
    endloop
  endfacet
  facet normal 0.617231 0.492225 -0.613792
    outer loop
      vertex 2.43523 1.17275 1.69835
      vertex 1.16622 1.46239 0.654505
      vertex 1.68523 2.11322 1.69835
    endloop
  endfacet
  facet normal 0.423526 0.879459 -0.217205
    outer loop
      vertex 1.68523 2.11322 1.69835
      vertex 0.601453 2.63514 1.69835
      vertex 0.667562 2.92478 3
    endloop
  endfacet
  facet normal 0.342537 0.711285 -0.613794
    outer loop
      vertex 1.16622 1.46239 0.654505
      vertex 0.601453 2.63514 1.69835
      vertex 1.68523 2.11322 1.69835
    endloop
  endfacet
  facet normal 0.951651 -0.217206 -0.217213
    outer loop
      vertex 2.70291 -1.30165 3
      vertex 2.43523 -1.17275 1.69835
      vertex 3 0 3
    endloop
  endfacet
  facet normal -0.763165 0.608604 -0.217208
    outer loop
      vertex -1.68523 2.11322 1.69835
      vertex -2.43523 1.17275 1.69835
      vertex -1.87047 2.34549 3
    endloop
  endfacet
  facet normal -0.342535 -0.711285 -0.613795
    outer loop
      vertex -0.601453 -2.63514 1.69835
      vertex -1.16622 -1.46239 0.654505
      vertex -0.416218 -1.82357 0.654505
    endloop
  endfacet
  facet normal 0.423525 -0.879459 -0.217206
    outer loop
      vertex 1.87047 -2.34549 3
      vertex 0.667562 -2.92478 3
      vertex 1.68523 -2.11322 1.69835
    endloop
  endfacet
  facet normal 0.342537 -0.711285 -0.613794
    outer loop
      vertex 1.68523 -2.11322 1.69835
      vertex 0.601453 -2.63514 1.69835
      vertex 1.16622 -1.46239 0.654505
    endloop
  endfacet
  facet normal 0.346256 -0.276127 -0.896583
    outer loop
      vertex 1.16622 -1.46239 0.654505
      vertex 0.601453 -0.289644 0.0752153
      vertex 1.68523 -0.811565 0.654505
    endloop
  endfacet
  facet normal 0.769672 0.175678 -0.613794
    outer loop
      vertex 1.87047 0 0.654505
      vertex 1.68523 0.811565 0.654505
      vertex 2.43523 1.17275 1.69835
    endloop
  endfacet
  facet normal 0.769672 0.175677 -0.613794
    outer loop
      vertex 2.70291 0 1.69835
      vertex 1.87047 0 0.654505
      vertex 2.43523 1.17275 1.69835
    endloop
  endfacet
  facet normal -0.423526 -0.879459 -0.217205
    outer loop
      vertex -0.667562 -2.92478 3
      vertex -1.68523 -2.11322 1.69835
      vertex -0.601453 -2.63514 1.69835
    endloop
  endfacet
  facet normal 0 -0.976126 -0.217205
    outer loop
      vertex -0.601453 -2.63514 1.69835
      vertex 0.667562 -2.92478 3
      vertex -0.667562 -2.92478 3
    endloop
  endfacet
  facet normal 0 -0.976126 -0.217205
    outer loop
      vertex 0.667562 -2.92478 3
      vertex -0.601453 -2.63514 1.69835
      vertex 0.601453 -2.63514 1.69835
    endloop
  endfacet
  facet normal -0.431773 0.0985489 -0.896582
    outer loop
      vertex -0.667562 0 0.0752153
      vertex -1.68523 0.811565 0.654505
      vertex -0.601453 0.289644 0.0752153
    endloop
  endfacet
  facet normal -0.431773 -0.0985489 -0.896582
    outer loop
      vertex -0.601453 -0.289644 0.0752153
      vertex -1.68523 -0.811565 0.654505
      vertex -0.667562 0 0.0752153
    endloop
  endfacet
  facet normal -0.951651 0.217206 -0.217213
    outer loop
      vertex -2.43523 1.17275 1.69835
      vertex -3 0 3
      vertex -2.70291 1.30165 3
    endloop
  endfacet
  facet normal -0.951651 0.217214 -0.217206
    outer loop
      vertex -2.70291 0 1.69835
      vertex -3 0 3
      vertex -2.43523 1.17275 1.69835
    endloop
  endfacet
  facet normal 0 0.976126 -0.217205
    outer loop
      vertex 0.601453 2.63514 1.69835
      vertex -0.667562 2.92478 3
      vertex 0.667562 2.92478 3
    endloop
  endfacet
  facet normal 0 0.976126 -0.217205
    outer loop
      vertex -0.667562 2.92478 3
      vertex 0.601453 2.63514 1.69835
      vertex -0.601453 2.63514 1.69835
    endloop
  endfacet
  facet normal 0.769672 -0.175677 -0.613794
    outer loop
      vertex 2.43523 -1.17275 1.69835
      vertex 1.87047 0 0.654505
      vertex 2.70291 0 1.69835
    endloop
  endfacet
  facet normal 0.951651 0.217206 -0.217213
    outer loop
      vertex 3 0 3
      vertex 2.43523 1.17275 1.69835
      vertex 2.70291 1.30165 3
    endloop
  endfacet
  facet normal 0.423526 -0.879459 -0.217205
    outer loop
      vertex 0.667562 -2.92478 3
      vertex 0.601453 -2.63514 1.69835
      vertex 1.68523 -2.11322 1.69835
    endloop
  endfacet
  facet normal 0.617232 0.492221 -0.613795
    outer loop
      vertex 1.68523 0.811565 0.654505
      vertex 1.16622 1.46239 0.654505
      vertex 2.43523 1.17275 1.69835
    endloop
  endfacet
  facet normal 0.431771 -0.098552 -0.896583
    outer loop
      vertex 1.68523 -0.811565 0.654505
      vertex 0.667562 0 0.0752153
      vertex 1.87047 0 0.654505
    endloop
  endfacet
  facet normal 0.769672 -0.175678 -0.613794
    outer loop
      vertex 2.43523 -1.17275 1.69835
      vertex 1.68523 -0.811565 0.654505
      vertex 1.87047 0 0.654505
    endloop
  endfacet
  facet normal -0.423525 -0.879459 -0.217206
    outer loop
      vertex -0.667562 -2.92478 3
      vertex -1.87047 -2.34549 3
      vertex -1.68523 -2.11322 1.69835
    endloop
  endfacet
  facet normal 0 -0.442877 -0.896583
    outer loop
      vertex 0.416218 -1.82357 0.654505
      vertex -0.148546 -0.650826 0.0752153
      vertex 0.148546 -0.650826 0.0752153
    endloop
  endfacet
  facet normal 0 -0.442877 -0.896583
    outer loop
      vertex -0.148546 -0.650826 0.0752153
      vertex 0.416218 -1.82357 0.654505
      vertex -0.416218 -1.82357 0.654505
    endloop
  endfacet
  facet normal 0.346254 -0.276129 -0.896583
    outer loop
      vertex 1.16622 -1.46239 0.654505
      vertex 0.416218 -0.521921 0.0752153
      vertex 0.601453 -0.289644 0.0752153
    endloop
  endfacet
  facet normal 0.192158 -0.399017 -0.896583
    outer loop
      vertex 1.16622 -1.46239 0.654505
      vertex 0.148546 -0.650826 0.0752153
      vertex 0.416218 -0.521921 0.0752153
    endloop
  endfacet
  facet normal -0.431771 0.098552 -0.896583
    outer loop
      vertex -0.667562 0 0.0752153
      vertex -1.87047 0 0.654505
      vertex -1.68523 0.811565 0.654505
    endloop
  endfacet
  facet normal -0.951651 -0.217214 -0.217206
    outer loop
      vertex -2.43523 -1.17275 1.69835
      vertex -3 0 3
      vertex -2.70291 0 1.69835
    endloop
  endfacet
  facet normal 0 0 -1
    outer loop
      vertex 0.601453 -0.289644 0.0752153
      vertex 0.601453 0.289644 0.0752153
      vertex 0.667562 0 0.0752153
    endloop
  endfacet
  facet normal 0 0 -1
    outer loop
      vertex 0.416218 -0.521921 0.0752153
      vertex 0.601453 0.289644 0.0752153
      vertex 0.601453 -0.289644 0.0752153
    endloop
  endfacet
  facet normal 0 0 -1
    outer loop
      vertex 0.416218 -0.521921 0.0752153
      vertex 0.416218 0.521921 0.0752153
      vertex 0.601453 0.289644 0.0752153
    endloop
  endfacet
  facet normal 0 0 -1
    outer loop
      vertex 0.148546 -0.650826 0.0752153
      vertex 0.416218 0.521921 0.0752153
      vertex 0.416218 -0.521921 0.0752153
    endloop
  endfacet
  facet normal 0 0 -1
    outer loop
      vertex 0.148546 -0.650826 0.0752153
      vertex 0.148546 0.650826 0.0752153
      vertex 0.416218 0.521921 0.0752153
    endloop
  endfacet
  facet normal 0 0 -1
    outer loop
      vertex -0.148546 -0.650826 0.0752153
      vertex 0.148546 0.650826 0.0752153
      vertex 0.148546 -0.650826 0.0752153
    endloop
  endfacet
  facet normal 0 0 -1
    outer loop
      vertex -0.148546 -0.650826 0.0752153
      vertex -0.148546 0.650826 0.0752153
      vertex 0.148546 0.650826 0.0752153
    endloop
  endfacet
  facet normal 0 0 -1
    outer loop
      vertex -0.416218 -0.521921 0.0752153
      vertex -0.148546 0.650826 0.0752153
      vertex -0.148546 -0.650826 0.0752153
    endloop
  endfacet
  facet normal 0 0 -1
    outer loop
      vertex -0.416218 -0.521921 0.0752153
      vertex -0.416218 0.521921 0.0752153
      vertex -0.148546 0.650826 0.0752153
    endloop
  endfacet
  facet normal 0 0 -1
    outer loop
      vertex -0.601453 -0.289644 0.0752153
      vertex -0.416218 0.521921 0.0752153
      vertex -0.416218 -0.521921 0.0752153
    endloop
  endfacet
  facet normal 0 0 -1
    outer loop
      vertex -0.601453 -0.289644 0.0752153
      vertex -0.601453 0.289644 0.0752153
      vertex -0.416218 0.521921 0.0752153
    endloop
  endfacet
  facet normal 0 -0 -1
    outer loop
      vertex -0.601453 0.289644 0.0752153
      vertex -0.601453 -0.289644 0.0752153
      vertex -0.667562 0 0.0752153
    endloop
  endfacet
  facet normal -0.423526 0.879459 -0.217205
    outer loop
      vertex -0.601453 2.63514 1.69835
      vertex -1.68523 2.11322 1.69835
      vertex -0.667562 2.92478 3
    endloop
  endfacet
  facet normal 0.951651 0.217214 -0.217206
    outer loop
      vertex 2.70291 0 1.69835
      vertex 2.43523 1.17275 1.69835
      vertex 3 0 3
    endloop
  endfacet
  facet normal 0.951651 -0.217214 -0.217206
    outer loop
      vertex 3 0 3
      vertex 2.43523 -1.17275 1.69835
      vertex 2.70291 0 1.69835
    endloop
  endfacet
  facet normal 0.342535 -0.711285 -0.613795
    outer loop
      vertex 0.601453 -2.63514 1.69835
      vertex 0.416218 -1.82357 0.654505
      vertex 1.16622 -1.46239 0.654505
    endloop
  endfacet
  facet normal 0.192156 -0.399018 -0.896583
    outer loop
      vertex 0.416218 -1.82357 0.654505
      vertex 0.148546 -0.650826 0.0752153
      vertex 1.16622 -1.46239 0.654505
    endloop
  endfacet
  facet normal 0.617232 -0.492221 -0.613795
    outer loop
      vertex 2.43523 -1.17275 1.69835
      vertex 1.16622 -1.46239 0.654505
      vertex 1.68523 -0.811565 0.654505
    endloop
  endfacet
  facet normal -0.769672 -0.175677 -0.613794
    outer loop
      vertex -2.43523 -1.17275 1.69835
      vertex -2.70291 0 1.69835
      vertex -1.87047 0 0.654505
    endloop
  endfacet
  facet normal -0.192158 0.399017 -0.896583
    outer loop
      vertex -0.416218 0.521921 0.0752153
      vertex -1.16622 1.46239 0.654505
      vertex -0.148546 0.650826 0.0752153
    endloop
  endfacet
  facet normal -0.342537 0.711285 -0.613794
    outer loop
      vertex -1.16622 1.46239 0.654505
      vertex -1.68523 2.11322 1.69835
      vertex -0.601453 2.63514 1.69835
    endloop
  endfacet
  facet normal -0.346254 0.276129 -0.896583
    outer loop
      vertex -0.601453 0.289644 0.0752153
      vertex -1.16622 1.46239 0.654505
      vertex -0.416218 0.521921 0.0752153
    endloop
  endfacet
  facet normal -0.346256 0.276127 -0.896583
    outer loop
      vertex -0.601453 0.289644 0.0752153
      vertex -1.68523 0.811565 0.654505
      vertex -1.16622 1.46239 0.654505
    endloop
  endfacet
  facet normal 0.192156 0.399018 -0.896583
    outer loop
      vertex 1.16622 1.46239 0.654505
      vertex 0.148546 0.650826 0.0752153
      vertex 0.416218 1.82357 0.654505
    endloop
  endfacet
  facet normal 0.192158 0.399017 -0.896583
    outer loop
      vertex 0.416218 0.521921 0.0752153
      vertex 0.148546 0.650826 0.0752153
      vertex 1.16622 1.46239 0.654505
    endloop
  endfacet
  facet normal -0.763165 -0.608604 -0.217208
    outer loop
      vertex -1.87047 -2.34549 3
      vertex -2.43523 -1.17275 1.69835
      vertex -1.68523 -2.11322 1.69835
    endloop
  endfacet
  facet normal -0.763163 -0.608606 -0.217211
    outer loop
      vertex -1.87047 -2.34549 3
      vertex -2.70291 -1.30165 3
      vertex -2.43523 -1.17275 1.69835
    endloop
  endfacet
  facet normal -0.617231 0.492225 -0.613792
    outer loop
      vertex -1.16622 1.46239 0.654505
      vertex -2.43523 1.17275 1.69835
      vertex -1.68523 2.11322 1.69835
    endloop
  endfacet
  facet normal -0.617232 0.492221 -0.613795
    outer loop
      vertex -1.68523 0.811565 0.654505
      vertex -2.43523 1.17275 1.69835
      vertex -1.16622 1.46239 0.654505
    endloop
  endfacet
  facet normal 0 -0.789466 -0.613795
    outer loop
      vertex -0.416218 -1.82357 0.654505
      vertex 0.601453 -2.63514 1.69835
      vertex -0.601453 -2.63514 1.69835
    endloop
  endfacet
  facet normal 0 -0.789466 -0.613795
    outer loop
      vertex 0.601453 -2.63514 1.69835
      vertex -0.416218 -1.82357 0.654505
      vertex 0.416218 -1.82357 0.654505
    endloop
  endfacet
  facet normal -0.192156 0.399018 -0.896583
    outer loop
      vertex -0.148546 0.650826 0.0752153
      vertex -1.16622 1.46239 0.654505
      vertex -0.416218 1.82357 0.654505
    endloop
  endfacet
  facet normal -0.192158 -0.399017 -0.896583
    outer loop
      vertex -0.148546 -0.650826 0.0752153
      vertex -1.16622 -1.46239 0.654505
      vertex -0.416218 -0.521921 0.0752153
    endloop
  endfacet
  facet normal -0.346254 -0.276129 -0.896583
    outer loop
      vertex -0.416218 -0.521921 0.0752153
      vertex -1.16622 -1.46239 0.654505
      vertex -0.601453 -0.289644 0.0752153
    endloop
  endfacet
  facet normal 0.342535 0.711285 -0.613795
    outer loop
      vertex 1.16622 1.46239 0.654505
      vertex 0.416218 1.82357 0.654505
      vertex 0.601453 2.63514 1.69835
    endloop
  endfacet
  facet normal 0.346256 0.276127 -0.896583
    outer loop
      vertex 1.68523 0.811565 0.654505
      vertex 0.601453 0.289644 0.0752153
      vertex 1.16622 1.46239 0.654505
    endloop
  endfacet
  facet normal 0.431773 0.0985489 -0.896582
    outer loop
      vertex 0.667562 0 0.0752153
      vertex 0.601453 0.289644 0.0752153
      vertex 1.68523 0.811565 0.654505
    endloop
  endfacet
  facet normal -0.769672 0.175677 -0.613794
    outer loop
      vertex -1.87047 0 0.654505
      vertex -2.70291 0 1.69835
      vertex -2.43523 1.17275 1.69835
    endloop
  endfacet
  facet normal -0.769672 0.175678 -0.613794
    outer loop
      vertex -1.87047 0 0.654505
      vertex -2.43523 1.17275 1.69835
      vertex -1.68523 0.811565 0.654505
    endloop
  endfacet
  facet normal 0.346254 0.276129 -0.896583
    outer loop
      vertex 0.601453 0.289644 0.0752153
      vertex 0.416218 0.521921 0.0752153
      vertex 1.16622 1.46239 0.654505
    endloop
  endfacet
  facet normal -0.617232 -0.492221 -0.613795
    outer loop
      vertex -1.16622 -1.46239 0.654505
      vertex -2.43523 -1.17275 1.69835
      vertex -1.68523 -0.811565 0.654505
    endloop
  endfacet
  facet normal -0.769672 -0.175678 -0.613794
    outer loop
      vertex -1.68523 -0.811565 0.654505
      vertex -2.43523 -1.17275 1.69835
      vertex -1.87047 0 0.654505
    endloop
  endfacet
  facet normal -0.346259 0.276133 0.89658
    outer loop
      vertex -0.416218 0.521921 29.9248
      vertex -1.16622 1.46239 29.3455
      vertex -0.601453 0.289644 29.9248
    endloop
  endfacet
  facet normal -0.763164 -0.608607 0.217203
    outer loop
      vertex -2.43523 -1.17275 28.3017
      vertex -2.70291 -1.30165 27
      vertex -1.87047 -2.34549 27
    endloop
  endfacet
  facet normal 0.192159 0.399024 0.89658
    outer loop
      vertex 0.416218 1.82357 29.3455
      vertex 0.148546 0.650826 29.9248
      vertex 1.16622 1.46239 29.3455
    endloop
  endfacet
  facet normal -0.617222 -0.492213 0.613811
    outer loop
      vertex -1.68523 -0.811565 29.3455
      vertex -2.43523 -1.17275 28.3017
      vertex -1.16622 -1.46239 29.3455
    endloop
  endfacet
  facet normal -0.617222 0.492213 0.613811
    outer loop
      vertex -1.16622 1.46239 29.3455
      vertex -2.43523 1.17275 28.3017
      vertex -1.68523 0.811565 29.3455
    endloop
  endfacet
  facet normal 0.19216 0.399022 0.89658
    outer loop
      vertex 1.16622 1.46239 29.3455
      vertex 0.148546 0.650826 29.9248
      vertex 0.416218 0.521921 29.9248
    endloop
  endfacet
  facet normal 0.346259 0.276133 0.89658
    outer loop
      vertex 1.16622 1.46239 29.3455
      vertex 0.416218 0.521921 29.9248
      vertex 0.601453 0.289644 29.9248
    endloop
  endfacet
  facet normal -0.769659 -0.175675 0.613811
    outer loop
      vertex -1.87047 0 29.3455
      vertex -2.43523 -1.17275 28.3017
      vertex -1.68523 -0.811565 29.3455
    endloop
  endfacet
  facet normal 0.763167 0.608605 0.2172
    outer loop
      vertex 1.87047 2.34549 27
      vertex 1.68523 2.11322 28.3017
      vertex 2.43523 1.17275 28.3017
    endloop
  endfacet
  facet normal 0.423526 0.879461 0.217198
    outer loop
      vertex 1.87047 2.34549 27
      vertex 0.667562 2.92478 27
      vertex 1.68523 2.11322 28.3017
    endloop
  endfacet
  facet normal 0.769659 -0.175675 0.613811
    outer loop
      vertex 1.87047 0 29.3455
      vertex 1.68523 -0.811565 29.3455
      vertex 2.43523 -1.17275 28.3017
    endloop
  endfacet
  facet normal 0.763164 -0.608607 0.217203
    outer loop
      vertex 2.43523 -1.17275 28.3017
      vertex 1.87047 -2.34549 27
      vertex 2.70291 -1.30165 27
    endloop
  endfacet
  facet normal 0.431778 -0.0985534 0.89658
    outer loop
      vertex 1.87047 0 29.3455
      vertex 0.667562 0 29.9248
      vertex 1.68523 -0.811565 29.3455
    endloop
  endfacet
  facet normal 0.951653 -0.217206 0.217205
    outer loop
      vertex 3 0 27
      vertex 2.43523 -1.17275 28.3017
      vertex 2.70291 -1.30165 27
    endloop
  endfacet
  facet normal 0.951653 0.217215 0.217198
    outer loop
      vertex 3 0 27
      vertex 2.43523 1.17275 28.3017
      vertex 2.70291 0 28.3017
    endloop
  endfacet
  facet normal -0.763164 0.608607 0.217203
    outer loop
      vertex -1.87047 2.34549 27
      vertex -2.70291 1.30165 27
      vertex -2.43523 1.17275 28.3017
    endloop
  endfacet
  facet normal 0.346261 0.276131 0.89658
    outer loop
      vertex 1.16622 1.46239 29.3455
      vertex 0.601453 0.289644 29.9248
      vertex 1.68523 0.811565 29.3455
    endloop
  endfacet
  facet normal 0.346261 -0.276131 0.89658
    outer loop
      vertex 1.68523 -0.811565 29.3455
      vertex 0.601453 -0.289644 29.9248
      vertex 1.16622 -1.46239 29.3455
    endloop
  endfacet
  facet normal -0.342529 0.711273 0.613811
    outer loop
      vertex -0.601453 2.63514 28.3017
      vertex -1.16622 1.46239 29.3455
      vertex -0.416218 1.82357 29.3455
    endloop
  endfacet
  facet normal -0.342531 0.711273 0.61381
    outer loop
      vertex -0.601453 2.63514 28.3017
      vertex -1.68523 2.11322 28.3017
      vertex -1.16622 1.46239 29.3455
    endloop
  endfacet
  facet normal 0.342531 0.711273 0.61381
    outer loop
      vertex 1.68523 2.11322 28.3017
      vertex 0.601453 2.63514 28.3017
      vertex 1.16622 1.46239 29.3455
    endloop
  endfacet
  facet normal 0.431778 0.0985534 0.89658
    outer loop
      vertex 1.68523 0.811565 29.3455
      vertex 0.667562 0 29.9248
      vertex 1.87047 0 29.3455
    endloop
  endfacet
  facet normal -0.346261 -0.276131 0.89658
    outer loop
      vertex -0.601453 -0.289644 29.9248
      vertex -1.68523 -0.811565 29.3455
      vertex -1.16622 -1.46239 29.3455
    endloop
  endfacet
  facet normal -0.431778 -0.0985534 0.89658
    outer loop
      vertex -0.667562 0 29.9248
      vertex -1.87047 0 29.3455
      vertex -1.68523 -0.811565 29.3455
    endloop
  endfacet
  facet normal 0 0.789453 0.613811
    outer loop
      vertex 0.601453 2.63514 28.3017
      vertex -0.416218 1.82357 29.3455
      vertex 0.416218 1.82357 29.3455
    endloop
  endfacet
  facet normal 0 0.789453 0.613811
    outer loop
      vertex -0.416218 1.82357 29.3455
      vertex 0.601453 2.63514 28.3017
      vertex -0.601453 2.63514 28.3017
    endloop
  endfacet
  facet normal -0.617221 -0.492217 0.613809
    outer loop
      vertex -1.16622 -1.46239 29.3455
      vertex -2.43523 -1.17275 28.3017
      vertex -1.68523 -2.11322 28.3017
    endloop
  endfacet
  facet normal -0.342531 -0.711273 0.61381
    outer loop
      vertex -1.16622 -1.46239 29.3455
      vertex -1.68523 -2.11322 28.3017
      vertex -0.601453 -2.63514 28.3017
    endloop
  endfacet
  facet normal 0.617221 -0.492217 0.613809
    outer loop
      vertex 2.43523 -1.17275 28.3017
      vertex 1.16622 -1.46239 29.3455
      vertex 1.68523 -2.11322 28.3017
    endloop
  endfacet
  facet normal 0.342531 -0.711273 0.61381
    outer loop
      vertex 1.16622 -1.46239 29.3455
      vertex 0.601453 -2.63514 28.3017
      vertex 1.68523 -2.11322 28.3017
    endloop
  endfacet
  facet normal 0.763164 0.608607 0.217203
    outer loop
      vertex 2.70291 1.30165 27
      vertex 1.87047 2.34549 27
      vertex 2.43523 1.17275 28.3017
    endloop
  endfacet
  facet normal 0.423526 0.879461 0.217197
    outer loop
      vertex 0.667562 2.92478 27
      vertex 0.601453 2.63514 28.3017
      vertex 1.68523 2.11322 28.3017
    endloop
  endfacet
  facet normal -0.769659 0.175675 0.613811
    outer loop
      vertex -1.68523 0.811565 29.3455
      vertex -2.43523 1.17275 28.3017
      vertex -1.87047 0 29.3455
    endloop
  endfacet
  facet normal -0.769659 -0.175675 0.61381
    outer loop
      vertex -1.87047 0 29.3455
      vertex -2.70291 0 28.3017
      vertex -2.43523 -1.17275 28.3017
    endloop
  endfacet
  facet normal -0.951653 -0.217206 0.217205
    outer loop
      vertex -2.43523 -1.17275 28.3017
      vertex -3 0 27
      vertex -2.70291 -1.30165 27
    endloop
  endfacet
  facet normal 0.951653 0.217206 0.217205
    outer loop
      vertex 2.70291 1.30165 27
      vertex 2.43523 1.17275 28.3017
      vertex 3 0 27
    endloop
  endfacet
  facet normal 0.951653 -0.217215 0.217198
    outer loop
      vertex 2.70291 0 28.3017
      vertex 2.43523 -1.17275 28.3017
      vertex 3 0 27
    endloop
  endfacet
  facet normal -0.951653 -0.217215 0.217198
    outer loop
      vertex -2.70291 0 28.3017
      vertex -3 0 27
      vertex -2.43523 -1.17275 28.3017
    endloop
  endfacet
  facet normal 0.43178 -0.0985504 0.896579
    outer loop
      vertex 0.667562 0 29.9248
      vertex 0.601453 -0.289644 29.9248
      vertex 1.68523 -0.811565 29.3455
    endloop
  endfacet
  facet normal -0.192159 0.399024 0.89658
    outer loop
      vertex -0.416218 1.82357 29.3455
      vertex -1.16622 1.46239 29.3455
      vertex -0.148546 0.650826 29.9248
    endloop
  endfacet
  facet normal 0.43178 0.0985504 0.896579
    outer loop
      vertex 1.68523 0.811565 29.3455
      vertex 0.601453 0.289644 29.9248
      vertex 0.667562 0 29.9248
    endloop
  endfacet
  facet normal 0.19216 -0.399022 0.89658
    outer loop
      vertex 0.416218 -0.521921 29.9248
      vertex 0.148546 -0.650826 29.9248
      vertex 1.16622 -1.46239 29.3455
    endloop
  endfacet
  facet normal 0.617222 -0.492213 0.613811
    outer loop
      vertex 1.68523 -0.811565 29.3455
      vertex 1.16622 -1.46239 29.3455
      vertex 2.43523 -1.17275 28.3017
    endloop
  endfacet
  facet normal 0 0.442883 0.896579
    outer loop
      vertex 0.416218 1.82357 29.3455
      vertex -0.148546 0.650826 29.9248
      vertex 0.148546 0.650826 29.9248
    endloop
  endfacet
  facet normal 0 0.442883 0.896579
    outer loop
      vertex -0.148546 0.650826 29.9248
      vertex 0.416218 1.82357 29.3455
      vertex -0.416218 1.82357 29.3455
    endloop
  endfacet
  facet normal -0.763167 -0.608605 0.2172
    outer loop
      vertex -1.68523 -2.11322 28.3017
      vertex -2.43523 -1.17275 28.3017
      vertex -1.87047 -2.34549 27
    endloop
  endfacet
  facet normal 0.423526 -0.879461 0.217198
    outer loop
      vertex 1.68523 -2.11322 28.3017
      vertex 0.667562 -2.92478 27
      vertex 1.87047 -2.34549 27
    endloop
  endfacet
  facet normal 0.763167 -0.608605 0.2172
    outer loop
      vertex 2.43523 -1.17275 28.3017
      vertex 1.68523 -2.11322 28.3017
      vertex 1.87047 -2.34549 27
    endloop
  endfacet
  facet normal 0.617221 0.492217 0.613809
    outer loop
      vertex 1.68523 2.11322 28.3017
      vertex 1.16622 1.46239 29.3455
      vertex 2.43523 1.17275 28.3017
    endloop
  endfacet
  facet normal 0 0.976128 0.217197
    outer loop
      vertex 0.667562 2.92478 27
      vertex -0.601453 2.63514 28.3017
      vertex 0.601453 2.63514 28.3017
    endloop
  endfacet
  facet normal 0 0.976128 0.217197
    outer loop
      vertex -0.601453 2.63514 28.3017
      vertex 0.667562 2.92478 27
      vertex -0.667562 2.92478 27
    endloop
  endfacet
  facet normal 0.342529 0.711273 0.613811
    outer loop
      vertex 0.601453 2.63514 28.3017
      vertex 0.416218 1.82357 29.3455
      vertex 1.16622 1.46239 29.3455
    endloop
  endfacet
  facet normal -0.951653 0.217206 0.217205
    outer loop
      vertex -2.70291 1.30165 27
      vertex -3 0 27
      vertex -2.43523 1.17275 28.3017
    endloop
  endfacet
  facet normal 0 0 1
    outer loop
      vertex 0.601453 0.289644 29.9248
      vertex 0.601453 -0.289644 29.9248
      vertex 0.667562 0 29.9248
    endloop
  endfacet
  facet normal 0 0 1
    outer loop
      vertex 0.416218 0.521921 29.9248
      vertex 0.601453 -0.289644 29.9248
      vertex 0.601453 0.289644 29.9248
    endloop
  endfacet
  facet normal 0 0 1
    outer loop
      vertex 0.416218 0.521921 29.9248
      vertex 0.416218 -0.521921 29.9248
      vertex 0.601453 -0.289644 29.9248
    endloop
  endfacet
  facet normal 0 0 1
    outer loop
      vertex 0.148546 0.650826 29.9248
      vertex 0.416218 -0.521921 29.9248
      vertex 0.416218 0.521921 29.9248
    endloop
  endfacet
  facet normal 0 0 1
    outer loop
      vertex 0.148546 0.650826 29.9248
      vertex 0.148546 -0.650826 29.9248
      vertex 0.416218 -0.521921 29.9248
    endloop
  endfacet
  facet normal -0 0 1
    outer loop
      vertex -0.148546 0.650826 29.9248
      vertex 0.148546 -0.650826 29.9248
      vertex 0.148546 0.650826 29.9248
    endloop
  endfacet
  facet normal 0 0 1
    outer loop
      vertex -0.148546 0.650826 29.9248
      vertex -0.148546 -0.650826 29.9248
      vertex 0.148546 -0.650826 29.9248
    endloop
  endfacet
  facet normal -0 0 1
    outer loop
      vertex -0.416218 0.521921 29.9248
      vertex -0.148546 -0.650826 29.9248
      vertex -0.148546 0.650826 29.9248
    endloop
  endfacet
  facet normal 0 0 1
    outer loop
      vertex -0.416218 0.521921 29.9248
      vertex -0.416218 -0.521921 29.9248
      vertex -0.148546 -0.650826 29.9248
    endloop
  endfacet
  facet normal -0 0 1
    outer loop
      vertex -0.601453 0.289644 29.9248
      vertex -0.416218 -0.521921 29.9248
      vertex -0.416218 0.521921 29.9248
    endloop
  endfacet
  facet normal 0 0 1
    outer loop
      vertex -0.601453 0.289644 29.9248
      vertex -0.601453 -0.289644 29.9248
      vertex -0.416218 -0.521921 29.9248
    endloop
  endfacet
  facet normal 0 -0 1
    outer loop
      vertex -0.601453 -0.289644 29.9248
      vertex -0.601453 0.289644 29.9248
      vertex -0.667562 0 29.9248
    endloop
  endfacet
  facet normal 0.769659 0.175675 0.61381
    outer loop
      vertex 2.43523 1.17275 28.3017
      vertex 1.87047 0 29.3455
      vertex 2.70291 0 28.3017
    endloop
  endfacet
  facet normal 0.769659 -0.175675 0.61381
    outer loop
      vertex 2.70291 0 28.3017
      vertex 1.87047 0 29.3455
      vertex 2.43523 -1.17275 28.3017
    endloop
  endfacet
  facet normal -0.951653 0.217215 0.217198
    outer loop
      vertex -2.43523 1.17275 28.3017
      vertex -3 0 27
      vertex -2.70291 0 28.3017
    endloop
  endfacet
  facet normal -0.43178 -0.0985504 0.896579
    outer loop
      vertex -0.667562 0 29.9248
      vertex -1.68523 -0.811565 29.3455
      vertex -0.601453 -0.289644 29.9248
    endloop
  endfacet
  facet normal -0.346259 -0.276133 0.89658
    outer loop
      vertex -0.601453 -0.289644 29.9248
      vertex -1.16622 -1.46239 29.3455
      vertex -0.416218 -0.521921 29.9248
    endloop
  endfacet
  facet normal 0.346259 -0.276133 0.89658
    outer loop
      vertex 0.601453 -0.289644 29.9248
      vertex 0.416218 -0.521921 29.9248
      vertex 1.16622 -1.46239 29.3455
    endloop
  endfacet
  facet normal -0.192159 -0.399024 0.89658
    outer loop
      vertex -0.148546 -0.650826 29.9248
      vertex -1.16622 -1.46239 29.3455
      vertex -0.416218 -1.82357 29.3455
    endloop
  endfacet
  facet normal -0.423526 -0.879461 0.217197
    outer loop
      vertex -0.601453 -2.63514 28.3017
      vertex -1.68523 -2.11322 28.3017
      vertex -0.667562 -2.92478 27
    endloop
  endfacet
  facet normal -0.423526 -0.879461 0.217198
    outer loop
      vertex -1.68523 -2.11322 28.3017
      vertex -1.87047 -2.34549 27
      vertex -0.667562 -2.92478 27
    endloop
  endfacet
  facet normal 0 -0.976128 0.217197
    outer loop
      vertex -0.667562 -2.92478 27
      vertex 0.601453 -2.63514 28.3017
      vertex -0.601453 -2.63514 28.3017
    endloop
  endfacet
  facet normal 0 -0.976128 0.217197
    outer loop
      vertex 0.601453 -2.63514 28.3017
      vertex -0.667562 -2.92478 27
      vertex 0.667562 -2.92478 27
    endloop
  endfacet
  facet normal 0.423526 -0.879461 0.217197
    outer loop
      vertex 1.68523 -2.11322 28.3017
      vertex 0.601453 -2.63514 28.3017
      vertex 0.667562 -2.92478 27
    endloop
  endfacet
  facet normal 0.769659 0.175675 0.613811
    outer loop
      vertex 2.43523 1.17275 28.3017
      vertex 1.68523 0.811565 29.3455
      vertex 1.87047 0 29.3455
    endloop
  endfacet
  facet normal 0.617222 0.492213 0.613811
    outer loop
      vertex 2.43523 1.17275 28.3017
      vertex 1.16622 1.46239 29.3455
      vertex 1.68523 0.811565 29.3455
    endloop
  endfacet
  facet normal -0.763167 0.608605 0.2172
    outer loop
      vertex -1.87047 2.34549 27
      vertex -2.43523 1.17275 28.3017
      vertex -1.68523 2.11322 28.3017
    endloop
  endfacet
  facet normal -0.617221 0.492217 0.613809
    outer loop
      vertex -1.68523 2.11322 28.3017
      vertex -2.43523 1.17275 28.3017
      vertex -1.16622 1.46239 29.3455
    endloop
  endfacet
  facet normal -0.19216 0.399022 0.89658
    outer loop
      vertex -0.148546 0.650826 29.9248
      vertex -1.16622 1.46239 29.3455
      vertex -0.416218 0.521921 29.9248
    endloop
  endfacet
  facet normal -0.342529 -0.711273 0.613811
    outer loop
      vertex -0.416218 -1.82357 29.3455
      vertex -1.16622 -1.46239 29.3455
      vertex -0.601453 -2.63514 28.3017
    endloop
  endfacet
  facet normal 0 -0.789453 0.613811
    outer loop
      vertex -0.601453 -2.63514 28.3017
      vertex 0.416218 -1.82357 29.3455
      vertex -0.416218 -1.82357 29.3455
    endloop
  endfacet
  facet normal 0 -0.789453 0.613811
    outer loop
      vertex 0.416218 -1.82357 29.3455
      vertex -0.601453 -2.63514 28.3017
      vertex 0.601453 -2.63514 28.3017
    endloop
  endfacet
  facet normal 0 -0.442883 0.896579
    outer loop
      vertex -0.148546 -0.650826 29.9248
      vertex 0.416218 -1.82357 29.3455
      vertex 0.148546 -0.650826 29.9248
    endloop
  endfacet
  facet normal 0 -0.442883 0.896579
    outer loop
      vertex 0.416218 -1.82357 29.3455
      vertex -0.148546 -0.650826 29.9248
      vertex -0.416218 -1.82357 29.3455
    endloop
  endfacet
  facet normal -0.431778 0.0985534 0.89658
    outer loop
      vertex -1.68523 0.811565 29.3455
      vertex -1.87047 0 29.3455
      vertex -0.667562 0 29.9248
    endloop
  endfacet
  facet normal -0.769659 0.175675 0.61381
    outer loop
      vertex -2.43523 1.17275 28.3017
      vertex -2.70291 0 28.3017
      vertex -1.87047 0 29.3455
    endloop
  endfacet
  facet normal -0.423526 0.879461 0.217197
    outer loop
      vertex -0.667562 2.92478 27
      vertex -1.68523 2.11322 28.3017
      vertex -0.601453 2.63514 28.3017
    endloop
  endfacet
  facet normal -0.423526 0.879461 0.217198
    outer loop
      vertex -0.667562 2.92478 27
      vertex -1.87047 2.34549 27
      vertex -1.68523 2.11322 28.3017
    endloop
  endfacet
  facet normal -0.19216 -0.399022 0.89658
    outer loop
      vertex -0.416218 -0.521921 29.9248
      vertex -1.16622 -1.46239 29.3455
      vertex -0.148546 -0.650826 29.9248
    endloop
  endfacet
  facet normal 0.342529 -0.711273 0.613811
    outer loop
      vertex 1.16622 -1.46239 29.3455
      vertex 0.416218 -1.82357 29.3455
      vertex 0.601453 -2.63514 28.3017
    endloop
  endfacet
  facet normal 0.192159 -0.399024 0.89658
    outer loop
      vertex 1.16622 -1.46239 29.3455
      vertex 0.148546 -0.650826 29.9248
      vertex 0.416218 -1.82357 29.3455
    endloop
  endfacet
  facet normal -0.43178 0.0985504 0.896579
    outer loop
      vertex -0.601453 0.289644 29.9248
      vertex -1.68523 0.811565 29.3455
      vertex -0.667562 0 29.9248
    endloop
  endfacet
  facet normal -0.346261 0.276131 0.89658
    outer loop
      vertex -1.16622 1.46239 29.3455
      vertex -1.68523 0.811565 29.3455
      vertex -0.601453 0.289644 29.9248
    endloop
  endfacet
endsolid OpenSCAD_Model
