CD_WORKPLACE, DS_WORKPLACE 
--- -------------------------------------------------- 
FSM FRENTES SIN MOLDURA                               
CJN CAJONES                                           
ARR ARRASTRES                                         
PTS PUERTAS                                           
CAB CABECEROS PARED                                   
SCC SECCIONADORA                                      
INS INSIDER                                           
NEU TALADRO NEUMATICO                                 
BAZ BAZ 160                                           
CUR CHAPEADORA CURVAS                                 
REC CHAPEADORA RECTAS                                 
BRN BARNIZADO                                         
RBR ROBER 18                                          
PZC PREMONTAJE-ZOCALOS/CORNISAS                       
PBC PREMONTAJE-BANDEJAS/COLUMNAS/SEPAR.               
MCM MONTAJE-COMPACTOS                                 
MNC MONTAJE-NIDOS/CAMAS/TERMINALES                    
MBM MONTAJE-BAJOS/MODULOS ENCOLADOS                   
MPT MONTAJE-PUENTES                                   
MMS MONTAJE-MODULOS ESPECIALES                        
EEN EMBALAJE-ENVOLTURA                                
ERT EMBALAJE-RETRACTIL                                
RPT REPARTO                                           
MAD MODULOS ALTOS DESMONTADOS                         
MAM MODULOS ALTOS MONTADOS                            
BA4 BAZ 140                                           
PCR PIEZAS PARA CORTE DE RETAL                        
MEX MUELLE EXPEDICIONES                               
IRM INCIDENCIAS-RECEPCION MERCANCIA                   
